%TF.GenerationSoftware,KiCad,Pcbnew,5.1.9-73d0e3b20d~88~ubuntu20.04.1*%
%TF.CreationDate,2021-04-23T11:45:38+03:00*%
%TF.ProjectId,fab-motor-board,6661622d-6d6f-4746-9f72-2d626f617264,rev?*%
%TF.SameCoordinates,Original*%
%TF.FileFunction,Copper,L1,Top*%
%TF.FilePolarity,Positive*%
%FSLAX46Y46*%
G04 Gerber Fmt 4.6, Leading zero omitted, Abs format (unit mm)*
G04 Created by KiCad (PCBNEW 5.1.9-73d0e3b20d~88~ubuntu20.04.1) date 2021-04-23 11:45:38*
%MOMM*%
%LPD*%
G01*
G04 APERTURE LIST*
%TA.AperFunction,Profile*%
%ADD10C,0.050000*%
%TD*%
%TA.AperFunction,SMDPad,CuDef*%
%ADD11R,3.800000X2.000000*%
%TD*%
%TA.AperFunction,SMDPad,CuDef*%
%ADD12R,1.500000X2.000000*%
%TD*%
%TA.AperFunction,SMDPad,CuDef*%
%ADD13R,1.800000X0.700000*%
%TD*%
%TA.AperFunction,SMDPad,CuDef*%
%ADD14R,2.410000X3.300000*%
%TD*%
%TA.AperFunction,SMDPad,CuDef*%
%ADD15R,4.000000X2.500000*%
%TD*%
%TA.AperFunction,SMDPad,CuDef*%
%ADD16R,2.000000X1.700000*%
%TD*%
%TA.AperFunction,SMDPad,CuDef*%
%ADD17R,2.600000X1.600000*%
%TD*%
%TA.AperFunction,SMDPad,CuDef*%
%ADD18R,1.700000X2.000000*%
%TD*%
%TA.AperFunction,ComponentPad*%
%ADD19C,3.000000*%
%TD*%
%TA.AperFunction,ComponentPad*%
%ADD20R,3.000000X3.000000*%
%TD*%
%TA.AperFunction,SMDPad,CuDef*%
%ADD21R,2.000000X3.000000*%
%TD*%
%TA.AperFunction,SMDPad,CuDef*%
%ADD22R,2.500000X1.700000*%
%TD*%
%TA.AperFunction,Conductor*%
%ADD23C,0.600000*%
%TD*%
%TA.AperFunction,Conductor*%
%ADD24C,0.400000*%
%TD*%
G04 APERTURE END LIST*
D10*
X189500000Y-97000000D02*
X189500000Y-122000000D01*
X189500000Y-97000000D02*
X144500000Y-97000000D01*
X144500000Y-122000000D02*
X189500000Y-122000000D01*
X144500000Y-97000000D02*
X144500000Y-122000000D01*
D11*
%TO.P,U1,2*%
%TO.N,+5V*%
X163500000Y-118150000D03*
D12*
X163500000Y-111850000D03*
%TO.P,U1,3*%
%TO.N,+12V*%
X161200000Y-111850000D03*
%TO.P,U1,1*%
%TO.N,GND*%
X165800000Y-111850000D03*
%TD*%
D13*
%TO.P,U3,1*%
%TO.N,GND*%
X169000000Y-101195000D03*
%TO.P,U3,2*%
%TO.N,/IN_A2*%
X169000000Y-102465000D03*
%TO.P,U3,3*%
%TO.N,/IN_A1*%
X169000000Y-103735000D03*
%TO.P,U3,4*%
%TO.N,+5V*%
X169000000Y-105005000D03*
%TO.P,U3,5*%
%TO.N,+12V*%
X174600000Y-105005000D03*
%TO.P,U3,6*%
%TO.N,/OUT_A1*%
X174600000Y-103735000D03*
%TO.P,U3,7*%
%TO.N,Net-(R2-Pad2)*%
X174600000Y-102465000D03*
%TO.P,U3,8*%
%TO.N,/OUT_A2*%
X174600000Y-101195000D03*
D14*
%TO.P,U3,9*%
%TO.N,GND*%
X171800000Y-103100000D03*
%TD*%
D15*
%TO.P,C4,2*%
%TO.N,GND*%
X184800000Y-114900000D03*
%TO.P,C4,1*%
%TO.N,+12V*%
X175800000Y-114900000D03*
%TD*%
D16*
%TO.P,C1,1*%
%TO.N,+12V*%
X175800000Y-107700000D03*
%TO.P,C1,2*%
%TO.N,GND*%
X171800000Y-107700000D03*
%TD*%
D17*
%TO.P,R2,1*%
%TO.N,GND*%
X179400000Y-99200000D03*
%TO.P,R2,2*%
%TO.N,Net-(R2-Pad2)*%
X179400000Y-104200000D03*
%TD*%
D13*
%TO.P,U2,1*%
%TO.N,+5V*%
X165300000Y-105040000D03*
%TO.P,U2,2*%
%TO.N,Net-(U2-Pad2)*%
X165300000Y-103770000D03*
%TO.P,U2,3*%
%TO.N,/IN_A1*%
X165300000Y-102500000D03*
%TO.P,U2,4*%
%TO.N,/IN_A2*%
X165300000Y-101230000D03*
%TO.P,U2,5*%
%TO.N,Net-(U2-Pad5)*%
X159700000Y-101230000D03*
%TO.P,U2,6*%
%TO.N,/UPDI*%
X159700000Y-102500000D03*
%TO.P,U2,7*%
%TO.N,Net-(U2-Pad7)*%
X159700000Y-103770000D03*
%TO.P,U2,8*%
%TO.N,GND*%
X159700000Y-105040000D03*
%TD*%
D18*
%TO.P,R1,1*%
%TO.N,GND*%
X171300000Y-110800000D03*
%TO.P,R1,2*%
%TO.N,Net-(D1-Pad1)*%
X171300000Y-114800000D03*
%TD*%
D19*
%TO.P,J5,2*%
%TO.N,/OUT_A2*%
X185500000Y-101800000D03*
D20*
%TO.P,J5,1*%
%TO.N,/OUT_A1*%
X185500000Y-105300000D03*
%TD*%
D21*
%TO.P,J3,3*%
%TO.N,GND*%
X149700000Y-119100000D03*
%TO.P,J3,2*%
X155800000Y-119100000D03*
%TO.P,J3,1*%
%TO.N,+12V*%
X155800000Y-107700000D03*
X149700000Y-107700000D03*
%TD*%
D22*
%TO.P,J2,2*%
%TO.N,GND*%
X151000000Y-100760000D03*
%TO.P,J2,1*%
%TO.N,/UPDI*%
X151000000Y-103300000D03*
%TD*%
D18*
%TO.P,D1,1*%
%TO.N,Net-(D1-Pad1)*%
X168800000Y-114800000D03*
%TO.P,D1,2*%
%TO.N,+5V*%
X168800000Y-110800000D03*
%TD*%
D16*
%TO.P,C5,1*%
%TO.N,+5V*%
X165200000Y-108300000D03*
%TO.P,C5,2*%
%TO.N,GND*%
X161200000Y-108300000D03*
%TD*%
D23*
%TO.N,+12V*%
X174600000Y-106500000D02*
X175800000Y-107700000D01*
X174600000Y-105005000D02*
X174600000Y-106500000D01*
X149700000Y-107700000D02*
X155800000Y-107700000D01*
%TO.N,+5V*%
X162300000Y-117400000D02*
X163100000Y-118200000D01*
%TO.N,+12V*%
X175800000Y-114900000D02*
X175800000Y-107700000D01*
X155800000Y-107700000D02*
X157900000Y-109800000D01*
X159150000Y-109800000D02*
X161200000Y-111850000D01*
X157900000Y-109800000D02*
X159150000Y-109800000D01*
X160350001Y-119850001D02*
X170849999Y-119850001D01*
X157900000Y-117400000D02*
X160350001Y-119850001D01*
X170849999Y-119850001D02*
X175800000Y-114900000D01*
X157900000Y-109800000D02*
X157900000Y-117400000D01*
%TO.N,GND*%
X173450000Y-99200000D02*
X179400000Y-99200000D01*
X171800000Y-100850000D02*
X173450000Y-99200000D01*
X171800000Y-103100000D02*
X171800000Y-100850000D01*
X171800000Y-103100000D02*
X171800000Y-107700000D01*
X159700000Y-106800000D02*
X161200000Y-108300000D01*
X159700000Y-105040000D02*
X159700000Y-106800000D01*
X149700000Y-119100000D02*
X155800000Y-119100000D01*
X171800000Y-102495000D02*
X171800000Y-103100000D01*
X170500000Y-101195000D02*
X171800000Y-102495000D01*
X169000000Y-101195000D02*
X170500000Y-101195000D01*
X147999999Y-117399999D02*
X149700000Y-119100000D01*
X147999999Y-101910001D02*
X147999999Y-117399999D01*
X149150000Y-100760000D02*
X147999999Y-101910001D01*
X151000000Y-100760000D02*
X149150000Y-100760000D01*
X161300001Y-108199999D02*
X161200000Y-108300000D01*
X168934999Y-100179999D02*
X163839999Y-100179999D01*
X169000000Y-100245000D02*
X168934999Y-100179999D01*
X161300001Y-102719997D02*
X161300001Y-108199999D01*
X169000000Y-101195000D02*
X169000000Y-100245000D01*
X151580001Y-100179999D02*
X151000000Y-100760000D01*
X161179999Y-100179999D02*
X151580001Y-100179999D01*
X162509999Y-101509999D02*
X161179999Y-100179999D01*
X163839999Y-100179999D02*
X162509999Y-101509999D01*
X162509999Y-101509999D02*
X161300001Y-102719997D01*
X171300000Y-112400000D02*
X171300000Y-110800000D01*
X171199999Y-112500001D02*
X171300000Y-112400000D01*
X166450001Y-112500001D02*
X171199999Y-112500001D01*
X165800000Y-111850000D02*
X166450001Y-112500001D01*
X178700000Y-121000000D02*
X184800000Y-114900000D01*
X157700000Y-121000000D02*
X178700000Y-121000000D01*
X155800000Y-119100000D02*
X157700000Y-121000000D01*
X171800000Y-110300000D02*
X171300000Y-110800000D01*
X171800000Y-107700000D02*
X171800000Y-110300000D01*
%TO.N,+5V*%
X168965000Y-105040000D02*
X169000000Y-105005000D01*
X165300000Y-105040000D02*
X168965000Y-105040000D01*
X165200000Y-105140000D02*
X165300000Y-105040000D01*
X165200000Y-108300000D02*
X165200000Y-105140000D01*
X163500000Y-110000000D02*
X163500000Y-111850000D01*
X165200000Y-108300000D02*
X163500000Y-110000000D01*
X166300000Y-108300000D02*
X168800000Y-110800000D01*
X165200000Y-108300000D02*
X166300000Y-108300000D01*
X163500000Y-111850000D02*
X163500000Y-118150000D01*
D24*
%TO.N,Net-(D1-Pad1)*%
X168800000Y-114800000D02*
X171300000Y-114800000D01*
%TO.N,/UPDI*%
X151800000Y-102500000D02*
X159700000Y-102500000D01*
X151000000Y-103300000D02*
X151800000Y-102500000D01*
D23*
%TO.N,/OUT_A1*%
X185099999Y-105700001D02*
X185500000Y-105300000D01*
X177539999Y-105700001D02*
X185099999Y-105700001D01*
X175574998Y-103735000D02*
X177539999Y-105700001D01*
X174600000Y-103735000D02*
X175574998Y-103735000D01*
%TO.N,/OUT_A2*%
X185400000Y-101900000D02*
X185500000Y-101800000D01*
X177804999Y-101900000D02*
X185400000Y-101900000D01*
X177099999Y-101195000D02*
X177804999Y-101900000D01*
X174600000Y-101195000D02*
X177099999Y-101195000D01*
D24*
%TO.N,Net-(R2-Pad2)*%
X178832193Y-104200000D02*
X179400000Y-104200000D01*
X177097193Y-102465000D02*
X178832193Y-104200000D01*
X174600000Y-102465000D02*
X177097193Y-102465000D01*
%TO.N,/IN_A1*%
X165300000Y-102500000D02*
X166704998Y-102500000D01*
X166704998Y-102500000D02*
X167939998Y-103735000D01*
X167939998Y-103735000D02*
X169000000Y-103735000D01*
%TO.N,/IN_A2*%
X167939998Y-102465000D02*
X169000000Y-102465000D01*
X166704998Y-101230000D02*
X167939998Y-102465000D01*
X165300000Y-101230000D02*
X166704998Y-101230000D01*
%TD*%
M02*
